Near Processor:
PIN 1 (3.3V) -> VCC (DS3231)		Orange
PIN 2 (SDA1, I2C) -> SDA (DS3231)	Purple
PIN 3 (SCL1, I2C) -> SCL (DS3231)	Grey
PIN 4 (GPIO 4) -> ECHO-PULSE (HC-SR04)	Green
PIN 5 (GROUND) -> ECHO-GROUND(HC-SR04)	Black
PIN 6 (GPIO 17) -> TRIG (HC-SR04)	Blue

Away Processor:
PIN 2 (5V) -> VCC (HC-SR04)		Red
PIN 3 (GROUND) -> GROUND (HC-SR04)	Black
PIN 7 (GROUND) -> GROUND(DS3231)	Black
